solid OpenSCAD_Model
  facet normal 0 0 -1
    outer loop
      vertex -138.968 7.45003 -100
      vertex -139.4 7.86662 -100
      vertex -139.4 51.5487 -100
    endloop
  endfacet
  facet normal 0 -0 -1
    outer loop
      vertex -50.48 -19.74 -100
      vertex -50.48 -26.0803 -100
      vertex -60.5822 -35.06 -100
    endloop
  endfacet
  facet normal 0 0 -1
    outer loop
      vertex -105.452 68.9 -100
      vertex -138.968 7.45003 -100
      vertex -139.4 51.5487 -100
    endloop
  endfacet
  facet normal -0 0 -1
    outer loop
      vertex -50.48 -19.74 -100
      vertex -60.5822 -35.06 -100
      vertex -50.2686 -17.594 -100
    endloop
  endfacet
  facet normal 0 0 -1
    outer loop
      vertex -136.875 3.70265 -100
      vertex -105.452 68.9 -100
      vertex -47.2582 -11.9618 -100
    endloop
  endfacet
  facet normal 0 0 -1
    outer loop
      vertex -137.737 5.67938 -100
      vertex -105.452 68.9 -100
      vertex -136.875 3.70265 -100
    endloop
  endfacet
  facet normal 0 0 -1
    outer loop
      vertex -47.2582 -11.9618 -100
      vertex -105.452 68.9 -100
      vertex -45.5913 -10.5938 -100
    endloop
  endfacet
  facet normal 0 0 -1
    outer loop
      vertex -45.5913 -10.5938 -100
      vertex -105.452 68.9 -100
      vertex -43.6895 -9.57732 -100
    endloop
  endfacet
  facet normal 0 0 -1
    outer loop
      vertex 37.6 -8.73999 -100
      vertex -39.48 -8.73999 -100
      vertex -105.452 68.9 -100
    endloop
  endfacet
  facet normal -0 0 -1
    outer loop
      vertex 105.452 68.9 -100
      vertex 37.6 -8.73999 -100
      vertex -105.452 68.9 -100
    endloop
  endfacet
  facet normal 0 0 -1
    outer loop
      vertex 46.7462 -13.6287 -100
      vertex 105.452 68.9 -100
      vertex 139.4 5.16998 -100
    endloop
  endfacet
  facet normal 0 0 -1
    outer loop
      vertex 46.7462 -13.6287 -100
      vertex 139.4 5.16998 -100
      vertex 47.7627 -15.5305 -100
    endloop
  endfacet
  facet normal 0 0 -1
    outer loop
      vertex 139.82 2.15912 -100
      vertex 136.957 -34.12 -100
      vertex 60.4434 -34.12 -100
    endloop
  endfacet
  facet normal 0 -0 -1
    outer loop
      vertex 139.82 2.15912 -100
      vertex 140.611 0.152924 -100
      vertex 136.957 -34.12 -100
    endloop
  endfacet
  facet normal 0 0 -1
    outer loop
      vertex 136.957 -34.12 -100
      vertex 140.611 0.152924 -100
      vertex 141.778 -1.66046 -100
    endloop
  endfacet
  facet normal 0 0 -1
    outer loop
      vertex 143.276 -3.21135 -100
      vertex 148.8 -7.90685 -100
      vertex 148.8 -24.0531 -100
    endloop
  endfacet
  facet normal 0 -0 -1
    outer loop
      vertex 143.276 -3.21135 -100
      vertex 148.8 -24.0531 -100
      vertex 136.957 -34.12 -100
    endloop
  endfacet
  facet normal 0 0 -1
    outer loop
      vertex 60.4434 -34.12 -100
      vertex 48.3886 -17.594 -100
      vertex 47.7627 -15.5305 -100
    endloop
  endfacet
  facet normal 0 0 -1
    outer loop
      vertex 60.4434 -34.12 -100
      vertex 48.6 -19.74 -100
      vertex 48.3886 -17.594 -100
    endloop
  endfacet
  facet normal 0 0 -1
    outer loop
      vertex 60.4434 -34.12 -100
      vertex 48.6 -24.0531 -100
      vertex 48.6 -19.74 -100
    endloop
  endfacet
  facet normal 0 -0 -1
    outer loop
      vertex 141.778 -1.66046 -100
      vertex 143.276 -3.21135 -100
      vertex 136.957 -34.12 -100
    endloop
  endfacet
  facet normal 0 -0 -1
    outer loop
      vertex 139.4 5.16998 -100
      vertex 139.82 2.15912 -100
      vertex 60.4434 -34.12 -100
    endloop
  endfacet
  facet normal 0 0 -1
    outer loop
      vertex 47.7627 -15.5305 -100
      vertex 139.4 5.16998 -100
      vertex 60.4434 -34.12 -100
    endloop
  endfacet
  facet normal 0 0 -1
    outer loop
      vertex 45.3782 -11.9618 -100
      vertex 105.452 68.9 -100
      vertex 46.7462 -13.6287 -100
    endloop
  endfacet
  facet normal 0 0 -1
    outer loop
      vertex 105.452 68.9 -100
      vertex 139.4 51.5487 -100
      vertex 139.4 5.16998 -100
    endloop
  endfacet
  facet normal 0 0 -1
    outer loop
      vertex 45.3782 -11.9618 -100
      vertex 43.7113 -10.5938 -100
      vertex 105.452 68.9 -100
    endloop
  endfacet
  facet normal 0 0 -1
    outer loop
      vertex 105.452 68.9 -100
      vertex 43.7113 -10.5938 -100
      vertex 41.8095 -9.57732 -100
    endloop
  endfacet
  facet normal 0 0 -1
    outer loop
      vertex 39.746 -8.95135 -100
      vertex 105.452 68.9 -100
      vertex 41.8095 -9.57732 -100
    endloop
  endfacet
  facet normal 0 0 -1
    outer loop
      vertex 39.746 -8.95135 -100
      vertex 37.6 -8.73999 -100
      vertex 105.452 68.9 -100
    endloop
  endfacet
  facet normal -0 0 -1
    outer loop
      vertex -39.48 -8.73999 -100
      vertex -41.626 -8.95135 -100
      vertex -105.452 68.9 -100
    endloop
  endfacet
  facet normal 0 0 -1
    outer loop
      vertex -105.452 68.9 -100
      vertex -41.626 -8.95135 -100
      vertex -43.6895 -9.57732 -100
    endloop
  endfacet
  facet normal 0 0 -1
    outer loop
      vertex -137.737 5.67938 -100
      vertex -138.968 7.45003 -100
      vertex -105.452 68.9 -100
    endloop
  endfacet
  facet normal 0 0 -1
    outer loop
      vertex -136.875 3.70265 -100
      vertex -47.2582 -11.9618 -100
      vertex -48.6262 -13.6287 -100
    endloop
  endfacet
  facet normal 0 0 -1
    outer loop
      vertex -49.6427 -15.5305 -100
      vertex -136.416 1.59579 -100
      vertex -48.6262 -13.6287 -100
    endloop
  endfacet
  facet normal 0 0 -1
    outer loop
      vertex -136.416 1.59579 -100
      vertex -136.875 3.70265 -100
      vertex -48.6262 -13.6287 -100
    endloop
  endfacet
  facet normal 0 0 -1
    outer loop
      vertex -49.6427 -15.5305 -100
      vertex -136.376 -0.560211 -100
      vertex -136.416 1.59579 -100
    endloop
  endfacet
  facet normal -0 0 -1
    outer loop
      vertex -49.6427 -15.5305 -100
      vertex -50.2686 -17.594 -100
      vertex -136.376 -0.560211 -100
    endloop
  endfacet
  facet normal 0 0 -1
    outer loop
      vertex -136.376 -0.560211 -100
      vertex -50.2686 -17.594 -100
      vertex -60.5822 -35.06 -100
    endloop
  endfacet
  facet normal 0 0 -1
    outer loop
      vertex -136.758 -2.68254 -100
      vertex -136.376 -0.560211 -100
      vertex -60.5822 -35.06 -100
    endloop
  endfacet
  facet normal 0 0 -1
    outer loop
      vertex -137.546 -4.68959 -100
      vertex -136.758 -2.68254 -100
      vertex -133.998 -35.06 -100
    endloop
  endfacet
  facet normal 0 -0 -1
    outer loop
      vertex -138.711 -6.50427 -100
      vertex -133.998 -35.06 -100
      vertex -140.033 -7.90486 -100
    endloop
  endfacet
  facet normal 0 -0 -1
    outer loop
      vertex -140.033 -7.90486 -100
      vertex -133.998 -35.06 -100
      vertex -144.1 -26.0803 -100
    endloop
  endfacet
  facet normal 0 0 -1
    outer loop
      vertex -144.1 -11.5197 -100
      vertex -140.033 -7.90486 -100
      vertex -144.1 -26.0803 -100
    endloop
  endfacet
  facet normal 0 0 -1
    outer loop
      vertex -138.711 -6.50427 -100
      vertex -137.546 -4.68959 -100
      vertex -133.998 -35.06 -100
    endloop
  endfacet
  facet normal 0 0 -1
    outer loop
      vertex -133.998 -35.06 -100
      vertex -136.758 -2.68254 -100
      vertex -60.5822 -35.06 -100
    endloop
  endfacet
  facet normal 0 0 1
    outer loop
      vertex -139.4 51.5487 -98
      vertex -139.4 7.86662 -98
      vertex -138.968 7.45003 -98
    endloop
  endfacet
  facet normal 0 0 1
    outer loop
      vertex -60.5822 -35.06 -98
      vertex -50.48 -26.0803 -98
      vertex -50.48 -19.74 -98
    endloop
  endfacet
  facet normal -0 0 1
    outer loop
      vertex -139.4 51.5487 -98
      vertex -138.968 7.45003 -98
      vertex -105.452 68.9 -98
    endloop
  endfacet
  facet normal 0 0 1
    outer loop
      vertex -50.2686 -17.594 -98
      vertex -60.5822 -35.06 -98
      vertex -50.48 -19.74 -98
    endloop
  endfacet
  facet normal 0 0 1
    outer loop
      vertex -47.2582 -11.9618 -98
      vertex -105.452 68.9 -98
      vertex -136.875 3.70265 -98
    endloop
  endfacet
  facet normal 0 -0 1
    outer loop
      vertex -136.875 3.70265 -98
      vertex -105.452 68.9 -98
      vertex -137.737 5.67938 -98
    endloop
  endfacet
  facet normal 0 0 1
    outer loop
      vertex -45.5913 -10.5938 -98
      vertex -105.452 68.9 -98
      vertex -47.2582 -11.9618 -98
    endloop
  endfacet
  facet normal 0 0 1
    outer loop
      vertex -43.6895 -9.57732 -98
      vertex -105.452 68.9 -98
      vertex -45.5913 -10.5938 -98
    endloop
  endfacet
  facet normal 0 0 1
    outer loop
      vertex -105.452 68.9 -98
      vertex -39.48 -8.73999 -98
      vertex 37.6 -8.73999 -98
    endloop
  endfacet
  facet normal -0 0 1
    outer loop
      vertex -105.452 68.9 -98
      vertex 37.6 -8.73999 -98
      vertex 105.452 68.9 -98
    endloop
  endfacet
  facet normal 0 0 1
    outer loop
      vertex 139.4 5.16998 -98
      vertex 105.452 68.9 -98
      vertex 46.7462 -13.6287 -98
    endloop
  endfacet
  facet normal 0 -0 1
    outer loop
      vertex 47.7627 -15.5305 -98
      vertex 139.4 5.16998 -98
      vertex 46.7462 -13.6287 -98
    endloop
  endfacet
  facet normal 0 0 1
    outer loop
      vertex 60.4434 -34.12 -98
      vertex 136.957 -34.12 -98
      vertex 139.82 2.15912 -98
    endloop
  endfacet
  facet normal 0 0 1
    outer loop
      vertex 136.957 -34.12 -98
      vertex 140.611 0.152924 -98
      vertex 139.82 2.15912 -98
    endloop
  endfacet
  facet normal 0 0 1
    outer loop
      vertex 141.778 -1.66046 -98
      vertex 140.611 0.152924 -98
      vertex 136.957 -34.12 -98
    endloop
  endfacet
  facet normal 0 -0 1
    outer loop
      vertex 148.8 -24.0531 -98
      vertex 148.8 -7.90685 -98
      vertex 143.276 -3.21135 -98
    endloop
  endfacet
  facet normal 0 0 1
    outer loop
      vertex 136.957 -34.12 -98
      vertex 148.8 -24.0531 -98
      vertex 143.276 -3.21135 -98
    endloop
  endfacet
  facet normal 0 0 1
    outer loop
      vertex 47.7627 -15.5305 -98
      vertex 48.3886 -17.594 -98
      vertex 60.4434 -34.12 -98
    endloop
  endfacet
  facet normal 0 0 1
    outer loop
      vertex 48.3886 -17.594 -98
      vertex 48.6 -19.74 -98
      vertex 60.4434 -34.12 -98
    endloop
  endfacet
  facet normal 0 0 1
    outer loop
      vertex 48.6 -19.74 -98
      vertex 48.6 -24.0531 -98
      vertex 60.4434 -34.12 -98
    endloop
  endfacet
  facet normal 0 0 1
    outer loop
      vertex 136.957 -34.12 -98
      vertex 143.276 -3.21135 -98
      vertex 141.778 -1.66046 -98
    endloop
  endfacet
  facet normal 0 0 1
    outer loop
      vertex 60.4434 -34.12 -98
      vertex 139.82 2.15912 -98
      vertex 139.4 5.16998 -98
    endloop
  endfacet
  facet normal 0 -0 1
    outer loop
      vertex 60.4434 -34.12 -98
      vertex 139.4 5.16998 -98
      vertex 47.7627 -15.5305 -98
    endloop
  endfacet
  facet normal 0 -0 1
    outer loop
      vertex 46.7462 -13.6287 -98
      vertex 105.452 68.9 -98
      vertex 45.3782 -11.9618 -98
    endloop
  endfacet
  facet normal 0 -0 1
    outer loop
      vertex 139.4 5.16998 -98
      vertex 139.4 51.5487 -98
      vertex 105.452 68.9 -98
    endloop
  endfacet
  facet normal 0 0 1
    outer loop
      vertex 105.452 68.9 -98
      vertex 43.7113 -10.5938 -98
      vertex 45.3782 -11.9618 -98
    endloop
  endfacet
  facet normal -0 0 1
    outer loop
      vertex 41.8095 -9.57732 -98
      vertex 43.7113 -10.5938 -98
      vertex 105.452 68.9 -98
    endloop
  endfacet
  facet normal 0 -0 1
    outer loop
      vertex 41.8095 -9.57732 -98
      vertex 105.452 68.9 -98
      vertex 39.746 -8.95135 -98
    endloop
  endfacet
  facet normal 0 0 1
    outer loop
      vertex 105.452 68.9 -98
      vertex 37.6 -8.73999 -98
      vertex 39.746 -8.95135 -98
    endloop
  endfacet
  facet normal 0 0 1
    outer loop
      vertex -105.452 68.9 -98
      vertex -41.626 -8.95135 -98
      vertex -39.48 -8.73999 -98
    endloop
  endfacet
  facet normal 0 -0 1
    outer loop
      vertex -43.6895 -9.57732 -98
      vertex -41.626 -8.95135 -98
      vertex -105.452 68.9 -98
    endloop
  endfacet
  facet normal 0 0 1
    outer loop
      vertex -105.452 68.9 -98
      vertex -138.968 7.45003 -98
      vertex -137.737 5.67938 -98
    endloop
  endfacet
  facet normal 0 -0 1
    outer loop
      vertex -48.6262 -13.6287 -98
      vertex -47.2582 -11.9618 -98
      vertex -136.875 3.70265 -98
    endloop
  endfacet
  facet normal 0 0 1
    outer loop
      vertex -48.6262 -13.6287 -98
      vertex -136.416 1.59579 -98
      vertex -49.6427 -15.5305 -98
    endloop
  endfacet
  facet normal 0 0 1
    outer loop
      vertex -48.6262 -13.6287 -98
      vertex -136.875 3.70265 -98
      vertex -136.416 1.59579 -98
    endloop
  endfacet
  facet normal 0 0 1
    outer loop
      vertex -136.416 1.59579 -98
      vertex -136.376 -0.560211 -98
      vertex -49.6427 -15.5305 -98
    endloop
  endfacet
  facet normal 0 0 1
    outer loop
      vertex -136.376 -0.560211 -98
      vertex -50.2686 -17.594 -98
      vertex -49.6427 -15.5305 -98
    endloop
  endfacet
  facet normal 0 -0 1
    outer loop
      vertex -60.5822 -35.06 -98
      vertex -50.2686 -17.594 -98
      vertex -136.376 -0.560211 -98
    endloop
  endfacet
  facet normal 0 0 1
    outer loop
      vertex -60.5822 -35.06 -98
      vertex -136.376 -0.560211 -98
      vertex -136.758 -2.68254 -98
    endloop
  endfacet
  facet normal 0 0 1
    outer loop
      vertex -133.998 -35.06 -98
      vertex -136.758 -2.68254 -98
      vertex -137.546 -4.68959 -98
    endloop
  endfacet
  facet normal -0 0 1
    outer loop
      vertex -140.033 -7.90486 -98
      vertex -133.998 -35.06 -98
      vertex -138.711 -6.50427 -98
    endloop
  endfacet
  facet normal -0 0 1
    outer loop
      vertex -144.1 -26.0803 -98
      vertex -133.998 -35.06 -98
      vertex -140.033 -7.90486 -98
    endloop
  endfacet
  facet normal 0 0 1
    outer loop
      vertex -144.1 -26.0803 -98
      vertex -140.033 -7.90486 -98
      vertex -144.1 -11.5197 -98
    endloop
  endfacet
  facet normal 0 0 1
    outer loop
      vertex -133.998 -35.06 -98
      vertex -137.546 -4.68959 -98
      vertex -138.711 -6.50427 -98
    endloop
  endfacet
  facet normal 0 0 1
    outer loop
      vertex -60.5822 -35.06 -98
      vertex -136.758 -2.68254 -98
      vertex -133.998 -35.06 -98
    endloop
  endfacet
  facet normal 1 0 0
    outer loop
      vertex -50.48 -19.74 -100
      vertex -50.48 -26.0803 -98
      vertex -50.48 -26.0803 -100
    endloop
  endfacet
  facet normal 1 0 -0
    outer loop
      vertex -50.48 -19.74 -100
      vertex -50.48 -19.74 -98
      vertex -50.48 -26.0803 -98
    endloop
  endfacet
  facet normal 0.995185 -0.0980183 0
    outer loop
      vertex -50.2686 -17.594 -100
      vertex -50.48 -19.74 -98
      vertex -50.48 -19.74 -100
    endloop
  endfacet
  facet normal 0.995185 -0.0980183 0
    outer loop
      vertex -50.2686 -17.594 -100
      vertex -50.2686 -17.594 -98
      vertex -50.48 -19.74 -98
    endloop
  endfacet
  facet normal 0.956941 -0.290284 0
    outer loop
      vertex -49.6427 -15.5305 -100
      vertex -50.2686 -17.594 -98
      vertex -50.2686 -17.594 -100
    endloop
  endfacet
  facet normal 0.956941 -0.290284 0
    outer loop
      vertex -49.6427 -15.5305 -100
      vertex -49.6427 -15.5305 -98
      vertex -50.2686 -17.594 -98
    endloop
  endfacet
  facet normal 0.88192 -0.471398 0
    outer loop
      vertex -48.6262 -13.6287 -100
      vertex -49.6427 -15.5305 -98
      vertex -49.6427 -15.5305 -100
    endloop
  endfacet
  facet normal 0.88192 -0.471398 0
    outer loop
      vertex -48.6262 -13.6287 -100
      vertex -48.6262 -13.6287 -98
      vertex -49.6427 -15.5305 -98
    endloop
  endfacet
  facet normal 0.773009 -0.634395 0
    outer loop
      vertex -47.2582 -11.9618 -100
      vertex -48.6262 -13.6287 -98
      vertex -48.6262 -13.6287 -100
    endloop
  endfacet
  facet normal 0.773009 -0.634395 0
    outer loop
      vertex -47.2582 -11.9618 -100
      vertex -47.2582 -11.9618 -98
      vertex -48.6262 -13.6287 -98
    endloop
  endfacet
  facet normal 0.634395 -0.773009 0
    outer loop
      vertex -45.5913 -10.5938 -100
      vertex -47.2582 -11.9618 -98
      vertex -47.2582 -11.9618 -100
    endloop
  endfacet
  facet normal 0.634395 -0.773009 0
    outer loop
      vertex -45.5913 -10.5938 -100
      vertex -45.5913 -10.5938 -98
      vertex -47.2582 -11.9618 -98
    endloop
  endfacet
  facet normal 0.471398 -0.88192 0
    outer loop
      vertex -43.6895 -9.57732 -100
      vertex -45.5913 -10.5938 -98
      vertex -45.5913 -10.5938 -100
    endloop
  endfacet
  facet normal 0.471398 -0.88192 0
    outer loop
      vertex -43.6895 -9.57732 -100
      vertex -43.6895 -9.57732 -98
      vertex -45.5913 -10.5938 -98
    endloop
  endfacet
  facet normal 0.290284 -0.956941 0
    outer loop
      vertex -41.626 -8.95135 -100
      vertex -43.6895 -9.57732 -98
      vertex -43.6895 -9.57732 -100
    endloop
  endfacet
  facet normal 0.290284 -0.956941 0
    outer loop
      vertex -41.626 -8.95135 -100
      vertex -41.626 -8.95135 -98
      vertex -43.6895 -9.57732 -98
    endloop
  endfacet
  facet normal 0.0980183 -0.995185 0
    outer loop
      vertex -39.48 -8.73999 -100
      vertex -41.626 -8.95135 -98
      vertex -41.626 -8.95135 -100
    endloop
  endfacet
  facet normal 0.0980183 -0.995185 0
    outer loop
      vertex -39.48 -8.73999 -100
      vertex -39.48 -8.73999 -98
      vertex -41.626 -8.95135 -98
    endloop
  endfacet
  facet normal 0 -1 0
    outer loop
      vertex 37.6 -8.73999 -100
      vertex -39.48 -8.73999 -98
      vertex -39.48 -8.73999 -100
    endloop
  endfacet
  facet normal 0 -1 0
    outer loop
      vertex 37.6 -8.73999 -100
      vertex 37.6 -8.73999 -98
      vertex -39.48 -8.73999 -98
    endloop
  endfacet
  facet normal -0.0980183 -0.995185 0
    outer loop
      vertex 39.746 -8.95135 -100
      vertex 37.6 -8.73999 -98
      vertex 37.6 -8.73999 -100
    endloop
  endfacet
  facet normal -0.0980183 -0.995185 0
    outer loop
      vertex 39.746 -8.95135 -100
      vertex 39.746 -8.95135 -98
      vertex 37.6 -8.73999 -98
    endloop
  endfacet
  facet normal -0.290284 -0.956941 0
    outer loop
      vertex 41.8095 -9.57732 -100
      vertex 39.746 -8.95135 -98
      vertex 39.746 -8.95135 -100
    endloop
  endfacet
  facet normal -0.290284 -0.956941 0
    outer loop
      vertex 41.8095 -9.57732 -100
      vertex 41.8095 -9.57732 -98
      vertex 39.746 -8.95135 -98
    endloop
  endfacet
  facet normal -0.471398 -0.88192 0
    outer loop
      vertex 43.7113 -10.5938 -100
      vertex 41.8095 -9.57732 -98
      vertex 41.8095 -9.57732 -100
    endloop
  endfacet
  facet normal -0.471398 -0.88192 0
    outer loop
      vertex 43.7113 -10.5938 -100
      vertex 43.7113 -10.5938 -98
      vertex 41.8095 -9.57732 -98
    endloop
  endfacet
  facet normal -0.634395 -0.773009 0
    outer loop
      vertex 45.3782 -11.9618 -100
      vertex 43.7113 -10.5938 -98
      vertex 43.7113 -10.5938 -100
    endloop
  endfacet
  facet normal -0.634395 -0.773009 0
    outer loop
      vertex 45.3782 -11.9618 -100
      vertex 45.3782 -11.9618 -98
      vertex 43.7113 -10.5938 -98
    endloop
  endfacet
  facet normal -0.773009 -0.634395 0
    outer loop
      vertex 46.7462 -13.6287 -100
      vertex 45.3782 -11.9618 -98
      vertex 45.3782 -11.9618 -100
    endloop
  endfacet
  facet normal -0.773009 -0.634395 0
    outer loop
      vertex 46.7462 -13.6287 -100
      vertex 46.7462 -13.6287 -98
      vertex 45.3782 -11.9618 -98
    endloop
  endfacet
  facet normal -0.88192 -0.471398 0
    outer loop
      vertex 47.7627 -15.5305 -100
      vertex 46.7462 -13.6287 -98
      vertex 46.7462 -13.6287 -100
    endloop
  endfacet
  facet normal -0.88192 -0.471398 0
    outer loop
      vertex 47.7627 -15.5305 -100
      vertex 47.7627 -15.5305 -98
      vertex 46.7462 -13.6287 -98
    endloop
  endfacet
  facet normal -0.956941 -0.290284 0
    outer loop
      vertex 48.3886 -17.594 -100
      vertex 47.7627 -15.5305 -98
      vertex 47.7627 -15.5305 -100
    endloop
  endfacet
  facet normal -0.956941 -0.290284 0
    outer loop
      vertex 48.3886 -17.594 -100
      vertex 48.3886 -17.594 -98
      vertex 47.7627 -15.5305 -98
    endloop
  endfacet
  facet normal -0.995185 -0.0980183 0
    outer loop
      vertex 48.6 -19.74 -100
      vertex 48.3886 -17.594 -98
      vertex 48.3886 -17.594 -100
    endloop
  endfacet
  facet normal -0.995185 -0.0980183 0
    outer loop
      vertex 48.6 -19.74 -100
      vertex 48.6 -19.74 -98
      vertex 48.3886 -17.594 -98
    endloop
  endfacet
  facet normal -1 0 0
    outer loop
      vertex 48.6 -24.0531 -100
      vertex 48.6 -19.74 -98
      vertex 48.6 -19.74 -100
    endloop
  endfacet
  facet normal -1 0 0
    outer loop
      vertex 48.6 -24.0531 -100
      vertex 48.6 -24.0531 -98
      vertex 48.6 -19.74 -98
    endloop
  endfacet
  facet normal -0.647648 -0.761939 0
    outer loop
      vertex 60.4434 -34.12 -100
      vertex 48.6 -24.0531 -98
      vertex 48.6 -24.0531 -100
    endloop
  endfacet
  facet normal -0.647648 -0.761939 0
    outer loop
      vertex 60.4434 -34.12 -100
      vertex 60.4434 -34.12 -98
      vertex 48.6 -24.0531 -98
    endloop
  endfacet
  facet normal 0 -1 0
    outer loop
      vertex 136.957 -34.12 -100
      vertex 60.4434 -34.12 -98
      vertex 60.4434 -34.12 -100
    endloop
  endfacet
  facet normal 0 -1 0
    outer loop
      vertex 136.957 -34.12 -100
      vertex 136.957 -34.12 -98
      vertex 60.4434 -34.12 -98
    endloop
  endfacet
  facet normal 0.647648 -0.761939 0
    outer loop
      vertex 148.8 -24.0531 -100
      vertex 136.957 -34.12 -98
      vertex 136.957 -34.12 -100
    endloop
  endfacet
  facet normal 0.647648 -0.761939 0
    outer loop
      vertex 148.8 -24.0531 -100
      vertex 148.8 -24.0531 -98
      vertex 136.957 -34.12 -98
    endloop
  endfacet
  facet normal 1 0 0
    outer loop
      vertex 148.8 -7.90685 -100
      vertex 148.8 -24.0531 -98
      vertex 148.8 -24.0531 -100
    endloop
  endfacet
  facet normal 1 0 -0
    outer loop
      vertex 148.8 -7.90685 -100
      vertex 148.8 -7.90685 -98
      vertex 148.8 -24.0531 -98
    endloop
  endfacet
  facet normal 0.647648 0.76194 0
    outer loop
      vertex 143.276 -3.21135 -100
      vertex 148.8 -7.90685 -98
      vertex 148.8 -7.90685 -100
    endloop
  endfacet
  facet normal 0.647648 0.76194 -0
    outer loop
      vertex 143.276 -3.21135 -100
      vertex 143.276 -3.21135 -98
      vertex 148.8 -7.90685 -98
    endloop
  endfacet
  facet normal 0.719211 0.694791 0
    outer loop
      vertex 141.778 -1.66046 -100
      vertex 143.276 -3.21135 -98
      vertex 143.276 -3.21135 -100
    endloop
  endfacet
  facet normal 0.719211 0.694791 -0
    outer loop
      vertex 141.778 -1.66046 -100
      vertex 141.778 -1.66046 -98
      vertex 143.276 -3.21135 -98
    endloop
  endfacet
  facet normal 0.840942 0.541126 0
    outer loop
      vertex 140.611 0.152924 -100
      vertex 141.778 -1.66046 -98
      vertex 141.778 -1.66046 -100
    endloop
  endfacet
  facet normal 0.840942 0.541126 -0
    outer loop
      vertex 140.611 0.152924 -100
      vertex 140.611 0.152924 -98
      vertex 141.778 -1.66046 -98
    endloop
  endfacet
  facet normal 0.930351 0.366669 0
    outer loop
      vertex 139.82 2.15912 -100
      vertex 140.611 0.152924 -98
      vertex 140.611 0.152924 -100
    endloop
  endfacet
  facet normal 0.930351 0.366669 -0
    outer loop
      vertex 139.82 2.15912 -100
      vertex 139.82 2.15912 -98
      vertex 140.611 0.152924 -98
    endloop
  endfacet
  facet normal 0.990406 0.138186 0
    outer loop
      vertex 139.4 5.16998 -100
      vertex 139.82 2.15912 -98
      vertex 139.82 2.15912 -100
    endloop
  endfacet
  facet normal 0.990406 0.138186 -0
    outer loop
      vertex 139.4 5.16998 -100
      vertex 139.4 5.16998 -98
      vertex 139.82 2.15912 -98
    endloop
  endfacet
  facet normal 1 0 0
    outer loop
      vertex 139.4 51.5487 -100
      vertex 139.4 5.16998 -98
      vertex 139.4 5.16998 -100
    endloop
  endfacet
  facet normal 1 0 -0
    outer loop
      vertex 139.4 51.5487 -100
      vertex 139.4 51.5487 -98
      vertex 139.4 5.16998 -98
    endloop
  endfacet
  facet normal 0.455111 0.890435 0
    outer loop
      vertex 105.452 68.9 -100
      vertex 139.4 51.5487 -98
      vertex 139.4 51.5487 -100
    endloop
  endfacet
  facet normal 0.455111 0.890435 -0
    outer loop
      vertex 105.452 68.9 -100
      vertex 105.452 68.9 -98
      vertex 139.4 51.5487 -98
    endloop
  endfacet
  facet normal 0 1 0
    outer loop
      vertex -105.452 68.9 -100
      vertex 105.452 68.9 -98
      vertex 105.452 68.9 -100
    endloop
  endfacet
  facet normal 0 1 0
    outer loop
      vertex -105.452 68.9 -100
      vertex -105.452 68.9 -98
      vertex 105.452 68.9 -98
    endloop
  endfacet
  facet normal -0.455111 0.890435 0
    outer loop
      vertex -139.4 51.5487 -100
      vertex -105.452 68.9 -98
      vertex -105.452 68.9 -100
    endloop
  endfacet
  facet normal -0.455111 0.890435 0
    outer loop
      vertex -139.4 51.5487 -100
      vertex -139.4 51.5487 -98
      vertex -105.452 68.9 -98
    endloop
  endfacet
  facet normal -1 0 0
    outer loop
      vertex -139.4 7.86662 -100
      vertex -139.4 51.5487 -98
      vertex -139.4 51.5487 -100
    endloop
  endfacet
  facet normal -1 0 0
    outer loop
      vertex -139.4 7.86662 -100
      vertex -139.4 7.86662 -98
      vertex -139.4 51.5487 -98
    endloop
  endfacet
  facet normal -0.693998 -0.719977 0
    outer loop
      vertex -138.968 7.45003 -100
      vertex -139.4 7.86662 -98
      vertex -139.4 7.86662 -100
    endloop
  endfacet
  facet normal -0.693998 -0.719977 0
    outer loop
      vertex -138.968 7.45003 -100
      vertex -138.968 7.45003 -98
      vertex -139.4 7.86662 -98
    endloop
  endfacet
  facet normal -0.821121 -0.570754 0
    outer loop
      vertex -137.737 5.67938 -100
      vertex -138.968 7.45003 -98
      vertex -138.968 7.45003 -100
    endloop
  endfacet
  facet normal -0.821121 -0.570754 0
    outer loop
      vertex -137.737 5.67938 -100
      vertex -137.737 5.67938 -98
      vertex -138.968 7.45003 -98
    endloop
  endfacet
  facet normal -0.916691 -0.399596 0
    outer loop
      vertex -136.875 3.70265 -100
      vertex -137.737 5.67938 -98
      vertex -137.737 5.67938 -100
    endloop
  endfacet
  facet normal -0.916691 -0.399596 0
    outer loop
      vertex -136.875 3.70265 -100
      vertex -136.875 3.70265 -98
      vertex -137.737 5.67938 -98
    endloop
  endfacet
  facet normal -0.977036 -0.213076 0
    outer loop
      vertex -136.416 1.59579 -100
      vertex -136.875 3.70265 -98
      vertex -136.875 3.70265 -100
    endloop
  endfacet
  facet normal -0.977036 -0.213076 0
    outer loop
      vertex -136.416 1.59579 -100
      vertex -136.416 1.59579 -98
      vertex -136.875 3.70265 -98
    endloop
  endfacet
  facet normal -0.999831 -0.0183768 0
    outer loop
      vertex -136.376 -0.560211 -100
      vertex -136.416 1.59579 -98
      vertex -136.416 1.59579 -100
    endloop
  endfacet
  facet normal -0.999831 -0.0183768 0
    outer loop
      vertex -136.376 -0.560211 -100
      vertex -136.376 -0.560211 -98
      vertex -136.416 1.59579 -98
    endloop
  endfacet
  facet normal -0.984204 0.177036 0
    outer loop
      vertex -136.758 -2.68254 -100
      vertex -136.376 -0.560211 -98
      vertex -136.376 -0.560211 -100
    endloop
  endfacet
  facet normal -0.984204 0.177036 0
    outer loop
      vertex -136.758 -2.68254 -100
      vertex -136.758 -2.68254 -98
      vertex -136.376 -0.560211 -98
    endloop
  endfacet
  facet normal -0.930756 0.36564 0
    outer loop
      vertex -137.546 -4.68959 -100
      vertex -136.758 -2.68254 -98
      vertex -136.758 -2.68254 -100
    endloop
  endfacet
  facet normal -0.930756 0.36564 0
    outer loop
      vertex -137.546 -4.68959 -100
      vertex -137.546 -4.68959 -98
      vertex -136.758 -2.68254 -98
    endloop
  endfacet
  facet normal -0.841539 0.540196 0
    outer loop
      vertex -138.711 -6.50427 -100
      vertex -137.546 -4.68959 -98
      vertex -137.546 -4.68959 -100
    endloop
  endfacet
  facet normal -0.841539 0.540196 0
    outer loop
      vertex -138.711 -6.50427 -100
      vertex -138.711 -6.50427 -98
      vertex -137.546 -4.68959 -98
    endloop
  endfacet
  facet normal -0.727237 0.686386 0
    outer loop
      vertex -140.033 -7.90486 -100
      vertex -138.711 -6.50427 -98
      vertex -138.711 -6.50427 -100
    endloop
  endfacet
  facet normal -0.727237 0.686386 0
    outer loop
      vertex -140.033 -7.90486 -100
      vertex -140.033 -7.90486 -98
      vertex -138.711 -6.50427 -98
    endloop
  endfacet
  facet normal -0.664364 0.747409 0
    outer loop
      vertex -144.1 -11.5197 -100
      vertex -140.033 -7.90486 -98
      vertex -140.033 -7.90486 -100
    endloop
  endfacet
  facet normal -0.664364 0.747409 0
    outer loop
      vertex -144.1 -11.5197 -100
      vertex -144.1 -11.5197 -98
      vertex -140.033 -7.90486 -98
    endloop
  endfacet
  facet normal -1 0 0
    outer loop
      vertex -144.1 -26.0803 -100
      vertex -144.1 -11.5197 -98
      vertex -144.1 -11.5197 -100
    endloop
  endfacet
  facet normal -1 0 0
    outer loop
      vertex -144.1 -26.0803 -100
      vertex -144.1 -26.0803 -98
      vertex -144.1 -11.5197 -98
    endloop
  endfacet
  facet normal -0.664364 -0.747409 0
    outer loop
      vertex -133.998 -35.06 -100
      vertex -144.1 -26.0803 -98
      vertex -144.1 -26.0803 -100
    endloop
  endfacet
  facet normal -0.664364 -0.747409 0
    outer loop
      vertex -133.998 -35.06 -100
      vertex -133.998 -35.06 -98
      vertex -144.1 -26.0803 -98
    endloop
  endfacet
  facet normal 0 -1 0
    outer loop
      vertex -60.5822 -35.06 -100
      vertex -133.998 -35.06 -98
      vertex -133.998 -35.06 -100
    endloop
  endfacet
  facet normal 0 -1 0
    outer loop
      vertex -60.5822 -35.06 -100
      vertex -60.5822 -35.06 -98
      vertex -133.998 -35.06 -98
    endloop
  endfacet
  facet normal 0.664364 -0.747409 0
    outer loop
      vertex -50.48 -26.0803 -100
      vertex -60.5822 -35.06 -98
      vertex -60.5822 -35.06 -100
    endloop
  endfacet
  facet normal 0.664364 -0.747409 0
    outer loop
      vertex -50.48 -26.0803 -100
      vertex -50.48 -26.0803 -98
      vertex -60.5822 -35.06 -98
    endloop
  endfacet
endsolid OpenSCAD_Model
